<?xml version="1.0" encoding="UTF-8" standalone="no"?>
<svg
   xmlns:dc="http://purl.org/dc/elements/1.1/"
   xmlns:cc="http://creativecommons.org/ns#"
   xmlns:rdf="http://www.w3.org/1999/02/22-rdf-syntax-ns#"
   xmlns:svg="http://www.w3.org/2000/svg"
   xmlns="http://www.w3.org/2000/svg"
   xmlns:xlink="http://www.w3.org/1999/xlink"
   xmlns:sodipodi="http://sodipodi.sourceforge.net/DTD/sodipodi-0.dtd"
   xmlns:inkscape="http://www.inkscape.org/namespaces/inkscape"
   viewBox="0 0 600 480"
   id="svg3481"
   version="1.1"
   inkscape:version="0.48.4 r9939"
   width="100%"
   height="100%"
   sodipodi:docname="timedecoding-burst.svg">
  <metadata
     id="metadata3737">
    <rdf:RDF>
      <cc:Work
         rdf:about="">
        <dc:format>image/svg+xml</dc:format>
        <dc:type
           rdf:resource="http://purl.org/dc/dcmitype/StillImage" />
      </cc:Work>
    </rdf:RDF>
  </metadata>
  <sodipodi:namedview
     pagecolor="#ffffff"
     bordercolor="#666666"
     borderopacity="1"
     objecttolerance="10"
     gridtolerance="10"
     guidetolerance="10"
     inkscape:pageopacity="0"
     inkscape:pageshadow="2"
     inkscape:window-width="698"
     inkscape:window-height="1029"
     id="namedview3735"
     showgrid="false"
     inkscape:zoom="2.7812867"
     inkscape:cx="236.36431"
     inkscape:cy="316.00853"
     inkscape:window-x="0"
     inkscape:window-y="19"
     inkscape:window-maximized="0"
     inkscape:current-layer="svg3481" />
  <desc
     id="desc3483">Produced by GNUPLOT 4.4 patchlevel 0 </desc>
  <defs
     id="defs3485">
    <circle
       id="gpDot"
       r="0.5"
       stroke-width="0.5" />
    <path
       id="gpPt0"
       stroke-width="0.222"
       stroke="currentColor"
       d="M-1,0 h2 M0,-1 v2" />
    <path
       id="gpPt1"
       stroke-width="0.222"
       stroke="currentColor"
       d="M-1,-1 L1,1 M1,-1 L-1,1" />
    <path
       id="gpPt2"
       stroke-width="0.222"
       stroke="currentColor"
       d="M-1,0 L1,0 M0,-1 L0,1 M-1,-1 L1,1 M-1,1 L1,-1" />
    <rect
       id="gpPt3"
       stroke-width="0.222"
       stroke="currentColor"
       x="-1"
       y="-1"
       width="2"
       height="2" />
    <rect
       id="gpPt4"
       stroke-width="0.222"
       stroke="currentColor"
       fill="currentColor"
       x="-1"
       y="-1"
       width="2"
       height="2" />
    <circle
       id="gpPt5"
       stroke-width="0.222"
       stroke="currentColor"
       cx="0"
       cy="0"
       r="1" />
    <use
       xlink:href="#gpPt5"
       id="gpPt6"
       fill="currentColor"
       stroke="none" />
    <path
       id="gpPt7"
       stroke-width="0.222"
       stroke="currentColor"
       d="M0,-1.33 L-1.33,0.67 L1.33,0.67 z" />
    <use
       xlink:href="#gpPt7"
       id="gpPt8"
       fill="currentColor"
       stroke="none" />
    <use
       xlink:href="#gpPt7"
       id="gpPt9"
       stroke="currentColor"
       transform="rotate(180)" />
    <use
       xlink:href="#gpPt9"
       id="gpPt10"
       fill="currentColor"
       stroke="none" />
    <use
       xlink:href="#gpPt3"
       id="gpPt11"
       stroke="currentColor"
       transform="rotate(45)" />
    <use
       xlink:href="#gpPt11"
       id="gpPt12"
       fill="currentColor"
       stroke="none" />
  </defs>
  <g
     style="fill:none; color:white; stroke:currentColor; stroke-width:1.00; stroke-linecap:butt; stroke-linejoin:miter"
     id="g3501" />
  <g
     style="fill:none; color:black; stroke:currentColor; stroke-width:1.00; stroke-linecap:butt; stroke-linejoin:miter"
     id="g3503">
    <path
       d="M80.9,413.4 L71.9,413.4 "
       id="path3505" />
    <g
       transform="translate(63.6,417.9)"
       style="stroke:none; fill:black; font-family:Arial; font-size:12.00pt; text-anchor:end"
       id="g3507">
      <text
         id="text3509">
        <tspan
           id="tspan3511"> 0</tspan>
      </text>
    </g>
    <path
       d="M80.9,380.5 L71.9,380.5 "
       id="path3513" />
    <g
       transform="translate(63.6,385.0)"
       style="stroke:none; fill:black; font-family:Arial; font-size:12.00pt; text-anchor:end"
       id="g3515">
      <text
         id="text3517">
        <tspan
           id="tspan3519"> 5</tspan>
      </text>
    </g>
    <path
       d="M80.9,347.6 L71.9,347.6 "
       id="path3521" />
    <g
       transform="translate(63.6,352.1)"
       style="stroke:none; fill:black; font-family:Arial; font-size:12.00pt; text-anchor:end"
       id="g3523">
      <text
         id="text3525">
        <tspan
           id="tspan3527"> 10</tspan>
      </text>
    </g>
    <path
       d="M80.9,314.7 L71.9,314.7 "
       id="path3529" />
    <g
       transform="translate(63.6,319.2)"
       style="stroke:none; fill:black; font-family:Arial; font-size:12.00pt; text-anchor:end"
       id="g3531">
      <text
         id="text3533">
        <tspan
           id="tspan3535"> 15</tspan>
      </text>
    </g>
    <path
       d="M80.9,281.7 L71.9,281.7 "
       id="path3537" />
    <g
       transform="translate(63.6,286.2)"
       style="stroke:none; fill:black; font-family:Arial; font-size:12.00pt; text-anchor:end"
       id="g3539">
      <text
         id="text3541">
        <tspan
           id="tspan3543"> 20</tspan>
      </text>
    </g>
    <path
       d="M80.9,248.8 L71.9,248.8 "
       id="path3545" />
    <g
       transform="translate(63.6,253.3)"
       style="stroke:none; fill:black; font-family:Arial; font-size:12.00pt; text-anchor:end"
       id="g3547">
      <text
         id="text3549">
        <tspan
           id="tspan3551"> 25</tspan>
      </text>
    </g>
    <path
       d="M80.9,215.9 L71.9,215.9 "
       id="path3553" />
    <g
       transform="translate(63.6,220.4)"
       style="stroke:none; fill:black; font-family:Arial; font-size:12.00pt; text-anchor:end"
       id="g3555">
      <text
         id="text3557">
        <tspan
           id="tspan3559"> 30</tspan>
      </text>
    </g>
    <path
       d="M80.9,183.0 L71.9,183.0 "
       id="path3561" />
    <g
       transform="translate(63.6,187.5)"
       style="stroke:none; fill:black; font-family:Arial; font-size:12.00pt; text-anchor:end"
       id="g3563">
      <text
         id="text3565">
        <tspan
           id="tspan3567"> 35</tspan>
      </text>
    </g>
    <path
       d="M80.9,150.1 L71.9,150.1 "
       id="path3569" />
    <g
       transform="translate(63.6,154.6)"
       style="stroke:none; fill:black; font-family:Arial; font-size:12.00pt; text-anchor:end"
       id="g3571">
      <text
         id="text3573">
        <tspan
           id="tspan3575"> 40</tspan>
      </text>
    </g>
    <path
       d="M80.9,413.4 L80.9,422.4 "
       id="path3577" />
    <g
       transform="translate(80.9,444.9)"
       style="stroke:none; fill:black; font-family:Arial; font-size:12.00pt; text-anchor:middle"
       id="g3579">
      <text
         id="text3581">
        <tspan
           id="tspan3583"> 0</tspan>
      </text>
    </g>
    <path
       d="M139.5,413.4 L139.5,422.4 "
       id="path3585" />
    <g
       transform="translate(139.5,444.9)"
       style="stroke:none; fill:black; font-family:Arial; font-size:12.00pt; text-anchor:middle"
       id="g3587">
      <text
         id="text3589">
        <tspan
           id="tspan3591"> 5</tspan>
      </text>
    </g>
    <path
       d="M198.1,413.4 L198.1,422.4 "
       id="path3593" />
    <g
       transform="translate(198.1,444.9)"
       style="stroke:none; fill:black; font-family:Arial; font-size:12.00pt; text-anchor:middle"
       id="g3595">
      <text
         id="text3597">
        <tspan
           id="tspan3599"> 10</tspan>
      </text>
    </g>
    <path
       d="M256.8,413.4 L256.8,422.4 "
       id="path3601" />
    <g
       transform="translate(256.8,444.9)"
       style="stroke:none; fill:black; font-family:Arial; font-size:12.00pt; text-anchor:middle"
       id="g3603">
      <text
         id="text3605">
        <tspan
           id="tspan3607"> 15</tspan>
      </text>
    </g>
    <path
       d="M315.4,413.4 L315.4,422.4 "
       id="path3609" />
    <g
       transform="translate(315.4,444.9)"
       style="stroke:none; fill:black; font-family:Arial; font-size:12.00pt; text-anchor:middle"
       id="g3611">
      <text
         id="text3613">
        <tspan
           id="tspan3615"> 20</tspan>
      </text>
    </g>
    <path
       d="M374.0,413.4 L374.0,422.4 "
       id="path3617" />
    <g
       transform="translate(374.0,444.9)"
       style="stroke:none; fill:black; font-family:Arial; font-size:12.00pt; text-anchor:middle"
       id="g3619">
      <text
         id="text3621">
        <tspan
           id="tspan3623"> 25</tspan>
      </text>
    </g>
    <path
       d="M374.0,413.4 L383.0,413.4 "
       id="path3625" />
    <g
       transform="translate(391.3,417.9)"
       style="stroke:none; fill:black; font-family:Arial; font-size:12.00pt; text-anchor:start"
       id="g3627">
      <text
         id="text3629">
        <tspan
           id="tspan3631"> 0</tspan>
      </text>
    </g>
    <path
       d="M374.0,360.7 L383.0,360.7 "
       id="path3633" />
    <g
       transform="translate(391.3,365.2)"
       style="stroke:none; fill:black; font-family:Arial; font-size:12.00pt; text-anchor:start"
       id="g3635">
      <text
         id="text3637">
        <tspan
           id="tspan3639"> 500</tspan>
      </text>
    </g>
    <path
       d="M374.0,308.1 L383.0,308.1 "
       id="path3641" />
    <g
       transform="translate(391.3,312.6)"
       style="stroke:none; fill:black; font-family:Arial; font-size:12.00pt; text-anchor:start"
       id="g3643">
      <text
         id="text3645">
        <tspan
           id="tspan3647"> 1000</tspan>
      </text>
    </g>
    <path
       d="M374.0,255.4 L383.0,255.4 "
       id="path3649" />
    <g
       transform="translate(391.3,259.9)"
       style="stroke:none; fill:black; font-family:Arial; font-size:12.00pt; text-anchor:start"
       id="g3651">
      <text
         id="text3653">
        <tspan
           id="tspan3655"> 1500</tspan>
      </text>
    </g>
    <path
       d="M374.0,202.8 L383.0,202.8 "
       id="path3657" />
    <g
       transform="translate(391.3,207.3)"
       style="stroke:none; fill:black; font-family:Arial; font-size:12.00pt; text-anchor:start"
       id="g3659">
      <text
         id="text3661">
        <tspan
           id="tspan3663"> 2000</tspan>
      </text>
    </g>
    <path
       d="M374.0,150.1 L383.0,150.1 "
       id="path3665" />
    <g
       transform="translate(391.3,154.6)"
       style="stroke:none; fill:black; font-family:Arial; font-size:12.00pt; text-anchor:start"
       id="g3667">
      <text
         id="text3669">
        <tspan
           id="tspan3671"> 2500</tspan>
      </text>
    </g>
    <path
       d="M80.9,150.1 L80.9,413.4 L374.0,413.4 L374.0,150.1 L80.9,150.1 Z "
       id="path3673" />
    <g
       transform="translate(25.9,281.8) rotate(270)"
       style="stroke:none; fill:black; font-family:Arial; font-size:12.00pt; text-anchor:middle"
       id="g3675">
      <text
         id="text3677">
        <tspan
           id="tspan3679">Matrix size</tspan>
      </text>
    </g>
    <g
       transform="translate(454.5,281.8) rotate(270)"
       style="stroke:none; fill:black; font-family:Arial; font-size:12.00pt; text-anchor:middle"
       id="g3681">
      <text
         id="text3683">
        <tspan
           id="tspan3685">Ack seqno</tspan>
      </text>
    </g>
    <g
       transform="translate(227.4,471.9)"
       style="stroke:none; fill:black; font-family:Arial; font-size:12.00pt; text-anchor:middle"
       id="g3687">
      <text
         id="text3689">
        <tspan
           id="tspan3691">Time </tspan>
      </text>
    </g>
    <g
       transform="translate(227.4,127.6)"
       style="stroke:none; fill:black; font-family:Arial; font-size:12.00pt; text-anchor:middle"
       id="g3693" />
    <path
       d="M89.2,195.1 L89.2,159.1 L305.7,159.1 L305.7,195.1 L89.2,195.1 Z "
       id="path3699" />
    <path
       d="M89.2,159.1 L305.7,159.1 "
       id="path3701" />
  </g>
  <a
     xlink:title="Plot #1"
     id="a3703">
    <g
       style="fill:none; color:white; stroke:currentColor; stroke-width:4.00; stroke-linecap:butt; stroke-linejoin:miter"
       id="g3705" />
    <g
       style="fill:none; color:red; stroke:currentColor; stroke-width:4.00; stroke-linecap:butt; stroke-linejoin:miter"
       id="g3707">
      <g
         transform="translate(246.9,172.6)"
         style="stroke:none; fill:black; font-family:Arial; font-size:12.00pt; text-anchor:end"
         id="g3709">
        <text
           id="text3711">
          <tspan
             id="tspan3713">Decoded matrix size</tspan>
        </text>
      </g>
      <path
         d="M255.2,168.1 L297.4,168.1 M129.0,413.4 L129.0,189.6 M137.2,413.4 L137.2,360.7 M151.2,413.4 L151.2,327.8    M175.9,413.4 L175.9,294.9 M198.1,413.4 L198.1,209.3 M215.7,413.4 L215.7,229.1 M226.3,413.4 L226.3,327.8    M263.8,413.4 L263.8,268.6 M273.2,413.4 L273.2,360.7 M307.2,413.4 L307.2,222.5 M330.6,413.4 L330.6,176.4    M334.1,413.4 L334.1,406.8 M337.7,413.4 L337.7,294.9 M341.2,413.4 L341.2,367.3 "
         id="path3715" />
    </g>
  </a>
  <a
     xlink:title="Plot #2"
     id="a3717">
    <g
       style="fill:none; color:green; stroke:currentColor; stroke-width:4.00; stroke-linecap:butt; stroke-linejoin:miter"
       id="g3719">
      <g
         transform="translate(246.9,190.6)"
         style="stroke:none; fill:black; font-family:Arial; font-size:12.00pt; text-anchor:end"
         id="g3721">
        <text
           id="text3723">
          <tspan
             id="tspan3725">ACK seqno</tspan>
        </text>
      </g>
      <path
         d="M255.2,186.1 L297.4,186.1 M83.2,412.7 L83.2,410.0 L85.6,410.0 L85.6,407.4 L87.9,407.4 L87.9,404.8    L90.3,404.8 L90.3,402.1 L92.6,402.1 L92.6,399.5 L95.0,399.5 L95.0,397.0 L97.3,397.0 L99.7,397.0    L102.0,397.0 L104.3,397.0 L106.7,397.0 L109.0,397.0 L111.4,397.0 L113.7,397.0 L116.1,397.0 L118.4,397.0    L120.8,397.0 L123.1,397.0 L125.5,397.0 L127.8,397.0 L127.8,386.5 L130.1,386.5 L132.5,386.5 L134.8,386.5    L134.8,367.7 L137.2,367.7 L139.5,367.7 L141.9,367.7 L144.2,367.7 L146.6,367.7 L148.9,367.7 L151.2,367.7    L151.2,356.7 L153.6,356.7 L155.9,356.7 L158.3,356.7 L160.6,356.7 L163.0,356.7 L165.3,356.7 L167.7,356.7    L170.0,356.7 L172.3,356.7 L174.7,356.7 L174.7,328.4 L177.0,328.4 L179.4,328.4 L181.7,328.4 L184.1,328.4    L186.4,328.4 L188.8,328.4 L191.1,328.4 L193.5,328.4 L195.8,328.4 L198.1,328.4 L198.1,316.5 L200.5,316.5    L202.8,316.5 L205.2,316.5 L207.5,316.5 L209.9,316.5 L212.2,316.5 L214.6,316.5 L214.6,304.9 L216.9,304.9    L219.2,304.9 L221.6,304.9 L223.9,304.9 L226.3,304.9 L226.3,292.1 L228.6,292.1 L231.0,292.1 L233.3,292.1    L235.7,292.1 L238.0,292.1 L240.3,292.1 L242.7,292.1 L245.0,292.1 L247.4,292.1 L249.7,292.1 L252.1,292.1    L254.4,292.1 L256.8,292.1 L259.1,292.1 L261.4,292.1 L261.4,277.2 L263.8,277.2 L266.1,277.2 L268.5,277.2    L270.8,277.2 L273.2,277.2 L273.2,245.1 L275.5,245.1 L277.9,245.1 L280.2,245.1 L282.6,245.1 L284.9,245.1    L287.2,245.1 L289.6,245.1 L291.9,245.1 L294.3,245.1 L296.6,245.1 L299.0,245.1 L301.3,245.1 L303.7,245.1    L306.0,245.1 L306.0,209.4 L308.3,209.4 L310.7,209.4 L313.0,209.4 L315.4,209.4 L317.7,209.4 L320.1,209.4    L322.4,209.4 L324.8,209.4 L327.1,209.4 L329.4,209.4 L329.4,197.6 L331.8,197.6 L331.8,183.8 L334.1,183.8    L336.5,183.8 L336.5,173.4 L338.8,173.4 L341.2,173.4 L341.2,167.9 L343.5,167.9 "
         id="path3727" />
    </g>
  </a>
  <g
     style="fill:none; color:white; stroke:currentColor; stroke-width:1.00; stroke-linecap:butt; stroke-linejoin:miter"
     id="g3729" />
  <g
     style="fill:none; color:black; stroke:currentColor; stroke-width:1.00; stroke-linecap:butt; stroke-linejoin:miter"
     id="g3731">
    <path
       d="M80.9,150.1 L80.9,413.4 L374.0,413.4 L374.0,150.1 L80.9,150.1 Z "
       id="path3733" />
  </g>
</svg>
