<?xml version="1.0" encoding="utf-8"  standalone="no"?>
<!DOCTYPE svg PUBLIC "-//W3C//DTD SVG 1.1//EN"
 "http://www.w3.org/Graphics/SVG/1.1/DTD/svg11.dtd">
<svg 
 viewBox="0 0 600 480"
 xmlns="http://www.w3.org/2000/svg"
 xmlns:xlink="http://www.w3.org/1999/xlink"
>

<title>Gnuplot</title>
<desc>Produced by GNUPLOT 5.0 patchlevel rc1 </desc>

<g id="gnuplot_canvas">

<rect x="0" y="0" width="600" height="480" fill="none"/>
<defs>

	<circle id='gpDot' r='0.5' stroke-width='0.5'/>
	<path id='gpPt0' stroke-width='0.222' stroke='currentColor' d='M-1,0 h2 M0,-1 v2'/>
	<path id='gpPt1' stroke-width='0.222' stroke='currentColor' d='M-1,-1 L1,1 M1,-1 L-1,1'/>
	<path id='gpPt2' stroke-width='0.222' stroke='currentColor' d='M-1,0 L1,0 M0,-1 L0,1 M-1,-1 L1,1 M-1,1 L1,-1'/>
	<rect id='gpPt3' stroke-width='0.222' stroke='currentColor' x='-1' y='-1' width='2' height='2'/>
	<rect id='gpPt4' stroke-width='0.222' stroke='currentColor' fill='currentColor' x='-1' y='-1' width='2' height='2'/>
	<circle id='gpPt5' stroke-width='0.222' stroke='currentColor' cx='0' cy='0' r='1'/>
	<use xlink:href='#gpPt5' id='gpPt6' fill='currentColor' stroke='none'/>
	<path id='gpPt7' stroke-width='0.222' stroke='currentColor' d='M0,-1.33 L-1.33,0.67 L1.33,0.67 z'/>
	<use xlink:href='#gpPt7' id='gpPt8' fill='currentColor' stroke='none'/>
	<use xlink:href='#gpPt7' id='gpPt9' stroke='currentColor' transform='rotate(180)'/>
	<use xlink:href='#gpPt9' id='gpPt10' fill='currentColor' stroke='none'/>
	<use xlink:href='#gpPt3' id='gpPt11' stroke='currentColor' transform='rotate(45)'/>
	<use xlink:href='#gpPt11' id='gpPt12' fill='currentColor' stroke='none'/>
	<path id='gpPt13' stroke-width='0.222' stroke='currentColor' d='M0,1.330 L1.265,0.411 L0.782,-1.067 L-0.782,-1.076 L-1.265,0.411 z'/>
	<use xlink:href='#gpPt13' id='gpPt14' fill='currentColor' stroke='none'/>
	<filter id='textbox' filterUnits='objectBoundingBox' x='0' y='0' height='1' width='1'>
	  <feFlood flood-color='white' flood-opacity='1' result='bgnd'/>
	  <feComposite in='SourceGraphic' in2='bgnd' operator='atop'/>
	</filter>
	<filter id='greybox' filterUnits='objectBoundingBox' x='0' y='0' height='1' width='1'>
	  <feFlood flood-color='lightgrey' flood-opacity='1' result='grey'/>
	  <feComposite in='SourceGraphic' in2='grey' operator='atop'/>
	</filter>
</defs>
<g fill="none" color="white" stroke="currentColor" stroke-width="1.00" stroke-linecap="butt" stroke-linejoin="miter">
</g>
<g fill="none" color="black" stroke="currentColor" stroke-width="1.00" stroke-linecap="butt" stroke-linejoin="miter">
	<path stroke='black'  d='M71.9,404.2 L80.9,404.2 M336.9,404.2 L327.9,404.2  '/>	<g transform="translate(63.6,408.7)" stroke="none" fill="black" font-family="Arial" font-size="12.00"  text-anchor="end">
		<text><tspan font-family="Arial" >100</tspan></text>
	</g>
</g>
<g fill="none" color="black" stroke="currentColor" stroke-width="1.00" stroke-linecap="butt" stroke-linejoin="miter">
	<path stroke='black'  d='M71.9,378.6 L80.9,378.6 M336.9,378.6 L327.9,378.6  '/>	<g transform="translate(63.6,383.1)" stroke="none" fill="black" font-family="Arial" font-size="12.00"  text-anchor="end">
		<text><tspan font-family="Arial" >300</tspan></text>
	</g>
</g>
<g fill="none" color="black" stroke="currentColor" stroke-width="1.00" stroke-linecap="butt" stroke-linejoin="miter">
	<path stroke='black'  d='M71.9,352.9 L80.9,352.9 M336.9,352.9 L327.9,352.9  '/>	<g transform="translate(63.6,357.4)" stroke="none" fill="black" font-family="Arial" font-size="12.00"  text-anchor="end">
		<text><tspan font-family="Arial" >500</tspan></text>
	</g>
</g>
<g fill="none" color="black" stroke="currentColor" stroke-width="1.00" stroke-linecap="butt" stroke-linejoin="miter">
	<path stroke='black'  d='M71.9,327.3 L80.9,327.3 M336.9,327.3 L327.9,327.3  '/>	<g transform="translate(63.6,331.8)" stroke="none" fill="black" font-family="Arial" font-size="12.00"  text-anchor="end">
		<text><tspan font-family="Arial" >700</tspan></text>
	</g>
</g>
<g fill="none" color="black" stroke="currentColor" stroke-width="1.00" stroke-linecap="butt" stroke-linejoin="miter">
	<path stroke='black'  d='M71.9,301.7 L80.9,301.7 M336.9,301.7 L327.9,301.7  '/>	<g transform="translate(63.6,306.2)" stroke="none" fill="black" font-family="Arial" font-size="12.00"  text-anchor="end">
		<text><tspan font-family="Arial" >900</tspan></text>
	</g>
</g>
<g fill="none" color="black" stroke="currentColor" stroke-width="1.00" stroke-linecap="butt" stroke-linejoin="miter">
	<path stroke='black'  d='M71.9,276.0 L80.9,276.0 M336.9,276.0 L327.9,276.0  '/>	<g transform="translate(63.6,280.5)" stroke="none" fill="black" font-family="Arial" font-size="12.00"  text-anchor="end">
		<text><tspan font-family="Arial" >1100</tspan></text>
	</g>
</g>
<g fill="none" color="black" stroke="currentColor" stroke-width="1.00" stroke-linecap="butt" stroke-linejoin="miter">
	<path stroke='black'  d='M71.9,250.4 L80.9,250.4 M336.9,250.4 L327.9,250.4  '/>	<g transform="translate(63.6,254.9)" stroke="none" fill="black" font-family="Arial" font-size="12.00"  text-anchor="end">
		<text><tspan font-family="Arial" >1300</tspan></text>
	</g>
</g>
<g fill="none" color="black" stroke="currentColor" stroke-width="1.00" stroke-linecap="butt" stroke-linejoin="miter">
	<path stroke='black'  d='M71.9,224.8 L80.9,224.8 M336.9,224.8 L327.9,224.8  '/>	<g transform="translate(63.6,229.3)" stroke="none" fill="black" font-family="Arial" font-size="12.00"  text-anchor="end">
		<text><tspan font-family="Arial" >1500</tspan></text>
	</g>
</g>
<g fill="none" color="black" stroke="currentColor" stroke-width="1.00" stroke-linecap="butt" stroke-linejoin="miter">
	<path stroke='black'  d='M71.9,199.1 L80.9,199.1 M336.9,199.1 L327.9,199.1  '/>	<g transform="translate(63.6,203.6)" stroke="none" fill="black" font-family="Arial" font-size="12.00"  text-anchor="end">
		<text><tspan font-family="Arial" >1700</tspan></text>
	</g>
</g>
<g fill="none" color="black" stroke="currentColor" stroke-width="1.00" stroke-linecap="butt" stroke-linejoin="miter">
	<path stroke='black'  d='M71.9,173.5 L80.9,173.5 M336.9,173.5 L327.9,173.5  '/>	<g transform="translate(63.6,178.0)" stroke="none" fill="black" font-family="Arial" font-size="12.00"  text-anchor="end">
		<text><tspan font-family="Arial" >1900</tspan></text>
	</g>
</g>
<g fill="none" color="black" stroke="currentColor" stroke-width="1.00" stroke-linecap="butt" stroke-linejoin="miter">
	<path stroke='black'  d='M85.2,417.0 L85.2,408.0  '/>	<g transform="translate(89.7,425.3) rotate(45)" stroke="none" fill="black" font-family="Arial" font-size="12.00"  text-anchor="start">
		<text><tspan font-family="Arial" >30 </tspan></text>
	</g>
</g>
<g fill="none" color="black" stroke="currentColor" stroke-width="1.00" stroke-linecap="butt" stroke-linejoin="miter">
	<path stroke='black'  d='M111.7,417.0 L111.7,408.0  '/>	<g transform="translate(116.2,425.3) rotate(45)" stroke="none" fill="black" font-family="Arial" font-size="12.00"  text-anchor="start">
		<text><tspan font-family="Arial" >60 </tspan></text>
	</g>
</g>
<g fill="none" color="black" stroke="currentColor" stroke-width="1.00" stroke-linecap="butt" stroke-linejoin="miter">
	<path stroke='black'  d='M138.2,417.0 L138.2,408.0  '/>	<g transform="translate(142.7,425.3) rotate(45)" stroke="none" fill="black" font-family="Arial" font-size="12.00"  text-anchor="start">
		<text><tspan font-family="Arial" >90 </tspan></text>
	</g>
</g>
<g fill="none" color="black" stroke="currentColor" stroke-width="1.00" stroke-linecap="butt" stroke-linejoin="miter">
	<path stroke='black'  d='M164.7,417.0 L164.7,408.0  '/>	<g transform="translate(169.2,425.3) rotate(45)" stroke="none" fill="black" font-family="Arial" font-size="12.00"  text-anchor="start">
		<text><tspan font-family="Arial" >120 </tspan></text>
	</g>
</g>
<g fill="none" color="black" stroke="currentColor" stroke-width="1.00" stroke-linecap="butt" stroke-linejoin="miter">
	<path stroke='black'  d='M191.2,417.0 L191.2,408.0  '/>	<g transform="translate(195.7,425.3) rotate(45)" stroke="none" fill="black" font-family="Arial" font-size="12.00"  text-anchor="start">
		<text><tspan font-family="Arial" >150 </tspan></text>
	</g>
</g>
<g fill="none" color="black" stroke="currentColor" stroke-width="1.00" stroke-linecap="butt" stroke-linejoin="miter">
	<path stroke='black'  d='M217.7,417.0 L217.7,408.0  '/>	<g transform="translate(222.2,425.3) rotate(45)" stroke="none" fill="black" font-family="Arial" font-size="12.00"  text-anchor="start">
		<text><tspan font-family="Arial" >180 </tspan></text>
	</g>
</g>
<g fill="none" color="black" stroke="currentColor" stroke-width="1.00" stroke-linecap="butt" stroke-linejoin="miter">
	<path stroke='black'  d='M244.2,417.0 L244.2,408.0  '/>	<g transform="translate(248.7,425.3) rotate(45)" stroke="none" fill="black" font-family="Arial" font-size="12.00"  text-anchor="start">
		<text><tspan font-family="Arial" >210 </tspan></text>
	</g>
</g>
<g fill="none" color="black" stroke="currentColor" stroke-width="1.00" stroke-linecap="butt" stroke-linejoin="miter">
	<path stroke='black'  d='M270.7,417.0 L270.7,408.0  '/>	<g transform="translate(275.2,425.3) rotate(45)" stroke="none" fill="black" font-family="Arial" font-size="12.00"  text-anchor="start">
		<text><tspan font-family="Arial" >240 </tspan></text>
	</g>
</g>
<g fill="none" color="black" stroke="currentColor" stroke-width="1.00" stroke-linecap="butt" stroke-linejoin="miter">
	<path stroke='black'  d='M297.2,417.0 L297.2,408.0  '/>	<g transform="translate(301.7,425.3) rotate(45)" stroke="none" fill="black" font-family="Arial" font-size="12.00"  text-anchor="start">
		<text><tspan font-family="Arial" >270 </tspan></text>
	</g>
</g>
<g fill="none" color="black" stroke="currentColor" stroke-width="1.00" stroke-linecap="butt" stroke-linejoin="miter">
	<path stroke='black'  d='M323.7,417.0 L323.7,408.0  '/>	<g transform="translate(328.2,425.3) rotate(45)" stroke="none" fill="black" font-family="Arial" font-size="12.00"  text-anchor="start">
		<text><tspan font-family="Arial" >300</tspan></text>
	</g>
</g>
<g fill="none" color="black" stroke="currentColor" stroke-width="1.00" stroke-linecap="butt" stroke-linejoin="miter">
</g>
<g fill="none" color="black" stroke="currentColor" stroke-width="1.00" stroke-linecap="butt" stroke-linejoin="miter">
	<path stroke='black'  d='M71.9,160.7 L71.9,417.0 L336.9,417.0 L336.9,160.7 L71.9,160.7 Z  '/></g>
<g fill="none" color="black" stroke="currentColor" stroke-width="1.00" stroke-linecap="butt" stroke-linejoin="miter">
	<g transform="translate(17.6,288.9) rotate(270)" stroke="none" fill="black" font-family="Arial" font-size="12.00"  text-anchor="middle">
		<text><tspan font-family="Arial" >ACK interval (in milliseconds)</tspan></text>
	</g>
</g>
<g fill="none" color="black" stroke="currentColor" stroke-width="1.00" stroke-linecap="butt" stroke-linejoin="miter">
	<g transform="translate(204.4,471.9)" stroke="none" fill="black" font-family="Arial" font-size="12.00"  text-anchor="middle">
		<text><tspan font-family="Arial" >Encoding window size (in packets)</tspan></text>
	</g>
</g>
<g fill="none" color="black" stroke="currentColor" stroke-width="1.00" stroke-linecap="butt" stroke-linejoin="miter">
</g>
	<g id="gnuplot_plot_1" ><title>gnuplot_plot_1</title>
<g fill="none" color="black" stroke="currentColor" stroke-width="1.00" stroke-linecap="butt" stroke-linejoin="miter">
	<g stroke='none' shape-rendering='crispEdges'>
		<polygon fill = 'rgb(120,   3, 251)' points = '71.9,417.0 98.4,417.0 98.4,391.4 71.9,391.4 '/>
		<polygon fill = 'rgb(112,   2, 240)' points = '98.4,417.0 124.9,417.0 124.9,391.4 98.4,391.4 '/>
		<polygon fill = 'rgb(108,   1, 230)' points = '124.9,417.0 151.4,417.0 151.4,391.4 124.9,391.4 '/>
		<polygon fill = 'rgb(106,   1, 227)' points = '151.4,417.0 177.9,417.0 177.9,391.4 151.4,391.4 '/>
		<polygon fill = 'rgb(102,   1, 214)' points = '177.9,417.0 204.4,417.0 204.4,391.4 177.9,391.4 '/>
		<polygon fill = 'rgb(101,   1, 213)' points = '204.4,417.0 230.9,417.0 230.9,391.4 204.4,391.4 '/>
		<polygon fill = 'rgb( 99,   1, 207)' points = '230.9,417.0 257.4,417.0 257.4,391.4 230.9,391.4 '/>
		<polygon fill = 'rgb( 99,   1, 207)' points = '257.4,417.0 283.9,417.0 283.9,391.4 257.4,391.4 '/>
		<polygon fill = 'rgb( 99,   1, 208)' points = '283.9,417.0 310.4,417.0 310.4,391.4 283.9,391.4 '/>
		<polygon fill = 'rgb( 99,   1, 207)' points = '310.4,417.0 336.9,417.0 336.9,391.4 310.4,391.4 '/>
		<polygon fill = 'rgb(103,   1, 218)' points = '71.9,391.4 98.4,391.4 98.4,365.7 71.9,365.7 '/>
		<polygon fill = 'rgb( 85,   0, 164)' points = '98.4,391.4 124.9,391.4 124.9,365.7 98.4,365.7 '/>
		<polygon fill = 'rgb( 77,   0, 138)' points = '124.9,391.4 151.4,391.4 151.4,365.7 124.9,365.7 '/>
		<polygon fill = 'rgb( 70,   0, 117)' points = '151.4,391.4 177.9,391.4 177.9,365.7 151.4,365.7 '/>
		<polygon fill = 'rgb( 53,   0,  69)' points = '177.9,391.4 204.4,391.4 204.4,365.7 177.9,365.7 '/>
		<polygon fill = 'rgb( 52,   0,  65)' points = '204.4,391.4 230.9,391.4 230.9,365.7 204.4,365.7 '/>
		<polygon fill = 'rgb( 46,   0,  53)' points = '230.9,391.4 257.4,391.4 257.4,365.7 230.9,365.7 '/>
		<polygon fill = 'rgb( 46,   0,  51)' points = '257.4,391.4 283.9,391.4 283.9,365.7 257.4,365.7 '/>
		<polygon fill = 'rgb( 39,   0,  37)' points = '283.9,391.4 310.4,391.4 310.4,365.7 283.9,365.7 '/>
		<polygon fill = 'rgb( 39,   0,  37)' points = '310.4,391.4 336.9,391.4 336.9,365.7 310.4,365.7 '/>
		<polygon fill = 'rgb(117,   2, 247)' points = '71.9,365.7 98.4,365.7 98.4,340.1 71.9,340.1 '/>
		<polygon fill = 'rgb( 94,   1, 192)' points = '98.4,365.7 124.9,365.7 124.9,340.1 98.4,340.1 '/>
		<polygon fill = 'rgb( 83,   0, 158)' points = '124.9,365.7 151.4,365.7 151.4,340.1 124.9,340.1 '/>
		<polygon fill = 'rgb( 73,   0, 125)' points = '151.4,365.7 177.9,365.7 177.9,340.1 151.4,340.1 '/>
		<polygon fill = 'rgb( 55,   0,  74)' points = '177.9,365.7 204.4,365.7 204.4,340.1 177.9,340.1 '/>
		<polygon fill = 'rgb( 44,   0,  48)' points = '204.4,365.7 230.9,365.7 230.9,340.1 204.4,340.1 '/>
		<polygon fill = 'rgb( 34,   0,  28)' points = '230.9,365.7 257.4,365.7 257.4,340.1 230.9,340.1 '/>
		<polygon fill = 'rgb( 38,   0,  35)' points = '257.4,365.7 283.9,365.7 283.9,340.1 257.4,340.1 '/>
		<polygon fill = 'rgb( 30,   0,  23)' points = '283.9,365.7 310.4,365.7 310.4,340.1 283.9,340.1 '/>
		<polygon fill = 'rgb(  0,   0,   0)' points = '310.4,365.7 336.9,365.7 336.9,340.1 310.4,340.1 '/>
		<polygon fill = 'rgb(146,   9, 225)' points = '71.9,340.1 98.4,340.1 98.4,314.5 71.9,314.5 '/>
		<polygon fill = 'rgb(116,   2, 246)' points = '98.4,340.1 124.9,340.1 124.9,314.5 98.4,314.5 '/>
		<polygon fill = 'rgb(106,   1, 226)' points = '124.9,340.1 151.4,340.1 151.4,314.5 124.9,314.5 '/>
		<polygon fill = 'rgb( 88,   0, 172)' points = '151.4,340.1 177.9,340.1 177.9,314.5 151.4,314.5 '/>
		<polygon fill = 'rgb( 58,   0,  82)' points = '177.9,340.1 204.4,340.1 204.4,314.5 177.9,314.5 '/>
		<polygon fill = 'rgb( 42,   0,  44)' points = '204.4,340.1 230.9,340.1 230.9,314.5 204.4,314.5 '/>
		<polygon fill = 'rgb( 45,   0,  50)' points = '230.9,340.1 257.4,340.1 257.4,314.5 230.9,314.5 '/>
		<polygon fill = 'rgb( 42,   0,  43)' points = '257.4,340.1 283.9,340.1 283.9,314.5 257.4,314.5 '/>
		<polygon fill = 'rgb( 30,   0,  22)' points = '283.9,340.1 310.4,340.1 310.4,314.5 283.9,314.5 '/>
		<polygon fill = 'rgb( 13,   0,   4)' points = '310.4,340.1 336.9,340.1 336.9,314.5 310.4,314.5 '/>
		<polygon fill = 'rgb(176,  28,  38)' points = '71.9,314.5 98.4,314.5 98.4,288.8 71.9,288.8 '/>
		<polygon fill = 'rgb(142,   8, 238)' points = '98.4,314.5 124.9,314.5 124.9,288.8 98.4,288.8 '/>
		<polygon fill = 'rgb(129,   4, 255)' points = '124.9,314.5 151.4,314.5 151.4,288.8 124.9,288.8 '/>
		<polygon fill = 'rgb(103,   1, 217)' points = '151.4,314.5 177.9,314.5 177.9,288.8 151.4,288.8 '/>
		<polygon fill = 'rgb( 67,   0, 109)' points = '177.9,314.5 204.4,314.5 204.4,288.8 177.9,288.8 '/>
		<polygon fill = 'rgb( 71,   0, 118)' points = '204.4,314.5 230.9,314.5 230.9,288.8 204.4,288.8 '/>
		<polygon fill = 'rgb( 50,   0,  61)' points = '230.9,314.5 257.4,314.5 257.4,288.8 230.9,288.8 '/>
		<polygon fill = 'rgb( 48,   0,  56)' points = '257.4,314.5 283.9,314.5 283.9,288.8 257.4,288.8 '/>
		<polygon fill = 'rgb( 27,   0,  18)' points = '283.9,314.5 310.4,314.5 310.4,288.8 283.9,288.8 '/>
		<polygon fill = 'rgb( 26,   0,  17)' points = '310.4,314.5 336.9,314.5 336.9,288.8 310.4,288.8 '/>
		<polygon fill = 'rgb(193,  48,   0)' points = '71.9,288.8 98.4,288.8 98.4,263.2 71.9,263.2 '/>
		<polygon fill = 'rgb(161,  16, 153)' points = '98.4,288.8 124.9,288.8 124.9,263.2 98.4,263.2 '/>
		<polygon fill = 'rgb(143,   8, 233)' points = '124.9,288.8 151.4,288.8 151.4,263.2 124.9,263.2 '/>
		<polygon fill = 'rgb(120,   3, 251)' points = '151.4,288.8 177.9,288.8 177.9,263.2 151.4,263.2 '/>
		<polygon fill = 'rgb( 92,   1, 185)' points = '177.9,288.8 204.4,288.8 204.4,263.2 177.9,263.2 '/>
		<polygon fill = 'rgb( 83,   0, 158)' points = '204.4,288.8 230.9,288.8 230.9,263.2 204.4,263.2 '/>
		<polygon fill = 'rgb( 79,   0, 145)' points = '230.9,288.8 257.4,288.8 257.4,263.2 230.9,263.2 '/>
		<polygon fill = 'rgb( 72,   0, 123)' points = '257.4,288.8 283.9,288.8 283.9,263.2 257.4,263.2 '/>
		<polygon fill = 'rgb( 54,   0,  72)' points = '283.9,288.8 310.4,288.8 310.4,263.2 283.9,263.2 '/>
		<polygon fill = 'rgb( 45,   0,  50)' points = '310.4,288.8 336.9,288.8 336.9,263.2 310.4,263.2 '/>
		<polygon fill = 'rgb(209,  77,   0)' points = '71.9,263.2 98.4,263.2 98.4,237.6 71.9,237.6 '/>
		<polygon fill = 'rgb(178,  30,  20)' points = '98.4,263.2 124.9,263.2 124.9,237.6 98.4,237.6 '/>
		<polygon fill = 'rgb(160,  16, 157)' points = '124.9,263.2 151.4,263.2 151.4,237.6 124.9,237.6 '/>
		<polygon fill = 'rgb(136,   6, 249)' points = '151.4,263.2 177.9,263.2 177.9,237.6 151.4,237.6 '/>
		<polygon fill = 'rgb(106,   1, 225)' points = '177.9,263.2 204.4,263.2 204.4,237.6 177.9,237.6 '/>
		<polygon fill = 'rgb(100,   1, 211)' points = '204.4,263.2 230.9,263.2 230.9,237.6 204.4,237.6 '/>
		<polygon fill = 'rgb( 93,   1, 188)' points = '230.9,263.2 257.4,263.2 257.4,237.6 230.9,237.6 '/>
		<polygon fill = 'rgb( 88,   0, 173)' points = '257.4,263.2 283.9,263.2 283.9,237.6 257.4,237.6 '/>
		<polygon fill = 'rgb( 79,   0, 146)' points = '283.9,263.2 310.4,263.2 310.4,237.6 283.9,237.6 '/>
		<polygon fill = 'rgb( 66,   0, 105)' points = '310.4,263.2 336.9,263.2 336.9,237.6 310.4,237.6 '/>
		<polygon fill = 'rgb(229, 133,   0)' points = '71.9,237.6 98.4,237.6 98.4,212.0 71.9,212.0 '/>
		<polygon fill = 'rgb(204,  66,   0)' points = '98.4,237.6 124.9,237.6 124.9,212.0 98.4,212.0 '/>
		<polygon fill = 'rgb(187,  40,   0)' points = '124.9,237.6 151.4,237.6 151.4,212.0 124.9,212.0 '/>
		<polygon fill = 'rgb(156,  13, 181)' points = '151.4,237.6 177.9,237.6 177.9,212.0 151.4,212.0 '/>
		<polygon fill = 'rgb(131,   5, 254)' points = '177.9,237.6 204.4,237.6 204.4,212.0 177.9,212.0 '/>
		<polygon fill = 'rgb(117,   2, 247)' points = '204.4,237.6 230.9,237.6 230.9,212.0 204.4,212.0 '/>
		<polygon fill = 'rgb(106,   1, 227)' points = '230.9,237.6 257.4,237.6 257.4,212.0 230.9,212.0 '/>
		<polygon fill = 'rgb( 95,   1, 195)' points = '257.4,237.6 283.9,237.6 283.9,212.0 257.4,212.0 '/>
		<polygon fill = 'rgb( 69,   0, 114)' points = '283.9,237.6 310.4,237.6 310.4,212.0 283.9,212.0 '/>
		<polygon fill = 'rgb( 62,   0,  94)' points = '310.4,237.6 336.9,237.6 336.9,212.0 310.4,212.0 '/>
		<polygon fill = 'rgb(242, 187,   0)' points = '71.9,212.0 98.4,212.0 98.4,186.3 71.9,186.3 '/>
		<polygon fill = 'rgb(209,  77,   0)' points = '98.4,212.0 124.9,212.0 124.9,186.3 98.4,186.3 '/>
		<polygon fill = 'rgb(191,  45,   0)' points = '124.9,212.0 151.4,212.0 151.4,186.3 124.9,186.3 '/>
		<polygon fill = 'rgb(169,  21,  98)' points = '151.4,212.0 177.9,212.0 177.9,186.3 151.4,186.3 '/>
		<polygon fill = 'rgb(142,   8, 237)' points = '177.9,212.0 204.4,212.0 204.4,186.3 177.9,186.3 '/>
		<polygon fill = 'rgb(133,   5, 253)' points = '204.4,212.0 230.9,212.0 230.9,186.3 204.4,186.3 '/>
		<polygon fill = 'rgb(115,   2, 245)' points = '230.9,212.0 257.4,212.0 257.4,186.3 230.9,186.3 '/>
		<polygon fill = 'rgb(128,   4, 255)' points = '257.4,212.0 283.9,212.0 283.9,186.3 257.4,186.3 '/>
		<polygon fill = 'rgb(103,   1, 218)' points = '283.9,212.0 310.4,212.0 310.4,186.3 283.9,186.3 '/>
		<polygon fill = 'rgb( 94,   1, 191)' points = '310.4,212.0 336.9,212.0 336.9,186.3 310.4,186.3 '/>
		<polygon fill = 'rgb(255, 255,   0)' points = '71.9,186.3 98.4,186.3 98.4,160.7 71.9,160.7 '/>
		<polygon fill = 'rgb(229, 135,   0)' points = '98.4,186.3 124.9,186.3 124.9,160.7 98.4,160.7 '/>
		<polygon fill = 'rgb(212,  85,   0)' points = '124.9,186.3 151.4,186.3 151.4,160.7 124.9,160.7 '/>
		<polygon fill = 'rgb(183,  35,   0)' points = '151.4,186.3 177.9,186.3 177.9,160.7 151.4,160.7 '/>
		<polygon fill = 'rgb(149,  10, 215)' points = '177.9,186.3 204.4,186.3 204.4,160.7 177.9,160.7 '/>
		<polygon fill = 'rgb(146,   9, 224)' points = '204.4,186.3 230.9,186.3 230.9,160.7 204.4,160.7 '/>
		<polygon fill = 'rgb(136,   6, 249)' points = '230.9,186.3 257.4,186.3 257.4,160.7 230.9,160.7 '/>
		<polygon fill = 'rgb(125,   4, 255)' points = '257.4,186.3 283.9,186.3 283.9,160.7 257.4,160.7 '/>
		<polygon fill = 'rgb(107,   1, 228)' points = '283.9,186.3 310.4,186.3 310.4,160.7 283.9,160.7 '/>
		<polygon fill = 'rgb( 91,   1, 183)' points = '310.4,186.3 336.9,186.3 336.9,160.7 310.4,160.7 '/>
	</g>
</g>
	</g>
<g fill="none" color="white" stroke="rgb( 91,   1, 183)" stroke-width="2.00" stroke-linecap="butt" stroke-linejoin="miter">
</g>
<g fill="none" color="black" stroke="currentColor" stroke-width="2.00" stroke-linecap="butt" stroke-linejoin="miter">
</g>
<g fill="none" color="black" stroke="black" stroke-width="1.00" stroke-linecap="butt" stroke-linejoin="miter">
</g>
<g fill="none" color="black" stroke="currentColor" stroke-width="1.00" stroke-linecap="butt" stroke-linejoin="miter">
	<path stroke='black'  d='M71.9,160.7 L71.9,417.0 L336.9,417.0 L336.9,160.7 L71.9,160.7 Z  '/>	<g stroke='none' shape-rendering='crispEdges'>
		<polygon fill = 'rgb(  5,   0,   1)' points = '343.5,417.0 356.7,417.0 356.7,414.9 343.5,414.9 '/>
		<polygon fill = 'rgb( 23,   0,  13)' points = '343.5,415.0 356.7,415.0 356.7,412.9 343.5,412.9 '/>
		<polygon fill = 'rgb( 32,   0,  26)' points = '343.5,413.0 356.7,413.0 356.7,410.9 343.5,410.9 '/>
		<polygon fill = 'rgb( 39,   0,  38)' points = '343.5,411.0 356.7,411.0 356.7,408.9 343.5,408.9 '/>
		<polygon fill = 'rgb( 45,   0,  50)' points = '343.5,409.0 356.7,409.0 356.7,406.9 343.5,406.9 '/>
		<polygon fill = 'rgb( 51,   0,  62)' points = '343.5,407.0 356.7,407.0 356.7,404.9 343.5,404.9 '/>
		<polygon fill = 'rgb( 55,   0,  75)' points = '343.5,405.0 356.7,405.0 356.7,402.9 343.5,402.9 '/>
		<polygon fill = 'rgb( 60,   0,  86)' points = '343.5,403.0 356.7,403.0 356.7,400.9 343.5,400.9 '/>
		<polygon fill = 'rgb( 64,   0,  98)' points = '343.5,401.0 356.7,401.0 356.7,398.9 343.5,398.9 '/>
		<polygon fill = 'rgb( 68,   0, 109)' points = '343.5,399.0 356.7,399.0 356.7,396.9 343.5,396.9 '/>
		<polygon fill = 'rgb( 71,   0, 121)' points = '343.5,397.0 356.7,397.0 356.7,394.9 343.5,394.9 '/>
		<polygon fill = 'rgb( 75,   0, 131)' points = '343.5,395.0 356.7,395.0 356.7,392.9 343.5,392.9 '/>
		<polygon fill = 'rgb( 78,   0, 142)' points = '343.5,393.0 356.7,393.0 356.7,390.9 343.5,390.9 '/>
		<polygon fill = 'rgb( 81,   0, 152)' points = '343.5,391.0 356.7,391.0 356.7,388.9 343.5,388.9 '/>
		<polygon fill = 'rgb( 84,   0, 162)' points = '343.5,389.0 356.7,389.0 356.7,386.9 343.5,386.9 '/>
		<polygon fill = 'rgb( 87,   0, 172)' points = '343.5,387.0 356.7,387.0 356.7,384.9 343.5,384.9 '/>
		<polygon fill = 'rgb( 90,   1, 181)' points = '343.5,385.0 356.7,385.0 356.7,382.9 343.5,382.9 '/>
		<polygon fill = 'rgb( 93,   1, 189)' points = '343.5,383.0 356.7,383.0 356.7,380.9 343.5,380.9 '/>
		<polygon fill = 'rgb( 96,   1, 197)' points = '343.5,381.0 356.7,381.0 356.7,378.9 343.5,378.9 '/>
		<polygon fill = 'rgb( 98,   1, 205)' points = '343.5,379.0 356.7,379.0 356.7,376.9 343.5,376.9 '/>
		<polygon fill = 'rgb(101,   1, 212)' points = '343.5,377.0 356.7,377.0 356.7,374.9 343.5,374.9 '/>
		<polygon fill = 'rgb(103,   1, 219)' points = '343.5,375.0 356.7,375.0 356.7,372.9 343.5,372.9 '/>
		<polygon fill = 'rgb(106,   1, 225)' points = '343.5,373.0 356.7,373.0 356.7,370.9 343.5,370.9 '/>
		<polygon fill = 'rgb(108,   1, 231)' points = '343.5,371.0 356.7,371.0 356.7,368.9 343.5,368.9 '/>
		<polygon fill = 'rgb(110,   2, 236)' points = '343.5,369.0 356.7,369.0 356.7,366.9 343.5,366.9 '/>
		<polygon fill = 'rgb(113,   2, 240)' points = '343.5,367.0 356.7,367.0 356.7,364.9 343.5,364.9 '/>
		<polygon fill = 'rgb(115,   2, 244)' points = '343.5,365.0 356.7,365.0 356.7,362.9 343.5,362.9 '/>
		<polygon fill = 'rgb(117,   2, 247)' points = '343.5,363.0 356.7,363.0 356.7,360.9 343.5,360.9 '/>
		<polygon fill = 'rgb(119,   3, 250)' points = '343.5,361.0 356.7,361.0 356.7,358.9 343.5,358.9 '/>
		<polygon fill = 'rgb(121,   3, 252)' points = '343.5,359.0 356.7,359.0 356.7,356.9 343.5,356.9 '/>
		<polygon fill = 'rgb(123,   3, 254)' points = '343.5,357.0 356.7,357.0 356.7,354.9 343.5,354.9 '/>
		<polygon fill = 'rgb(126,   4, 255)' points = '343.5,355.0 356.7,355.0 356.7,352.9 343.5,352.9 '/>
		<polygon fill = 'rgb(128,   4, 255)' points = '343.5,353.0 356.7,353.0 356.7,350.9 343.5,350.9 '/>
		<polygon fill = 'rgb(129,   4, 255)' points = '343.5,351.0 356.7,351.0 356.7,348.9 343.5,348.9 '/>
		<polygon fill = 'rgb(131,   5, 254)' points = '343.5,349.0 356.7,349.0 356.7,346.9 343.5,346.9 '/>
		<polygon fill = 'rgb(133,   5, 252)' points = '343.5,347.0 356.7,347.0 356.7,344.9 343.5,344.9 '/>
		<polygon fill = 'rgb(135,   6, 250)' points = '343.5,345.0 356.7,345.0 356.7,342.9 343.5,342.9 '/>
		<polygon fill = 'rgb(137,   6, 247)' points = '343.5,343.0 356.7,343.0 356.7,340.9 343.5,340.9 '/>
		<polygon fill = 'rgb(139,   7, 244)' points = '343.5,341.0 356.7,341.0 356.7,338.9 343.5,338.9 '/>
		<polygon fill = 'rgb(141,   7, 240)' points = '343.5,339.0 356.7,339.0 356.7,336.9 343.5,336.9 '/>
		<polygon fill = 'rgb(143,   8, 236)' points = '343.5,337.0 356.7,337.0 356.7,334.9 343.5,334.9 '/>
		<polygon fill = 'rgb(144,   8, 231)' points = '343.5,335.0 356.7,335.0 356.7,332.9 343.5,332.9 '/>
		<polygon fill = 'rgb(146,   9, 225)' points = '343.5,333.0 356.7,333.0 356.7,330.8 343.5,330.8 '/>
		<polygon fill = 'rgb(148,  10, 218)' points = '343.5,330.9 356.7,330.9 356.7,328.8 343.5,328.8 '/>
		<polygon fill = 'rgb(150,  10, 212)' points = '343.5,328.9 356.7,328.9 356.7,326.8 343.5,326.8 '/>
		<polygon fill = 'rgb(151,  11, 204)' points = '343.5,326.9 356.7,326.9 356.7,324.8 343.5,324.8 '/>
		<polygon fill = 'rgb(153,  12, 197)' points = '343.5,324.9 356.7,324.9 356.7,322.8 343.5,322.8 '/>
		<polygon fill = 'rgb(155,  13, 189)' points = '343.5,322.9 356.7,322.9 356.7,320.8 343.5,320.8 '/>
		<polygon fill = 'rgb(156,  13, 180)' points = '343.5,320.9 356.7,320.9 356.7,318.8 343.5,318.8 '/>
		<polygon fill = 'rgb(158,  14, 171)' points = '343.5,318.9 356.7,318.9 356.7,316.8 343.5,316.8 '/>
		<polygon fill = 'rgb(159,  15, 161)' points = '343.5,316.9 356.7,316.9 356.7,314.8 343.5,314.8 '/>
		<polygon fill = 'rgb(161,  16, 151)' points = '343.5,314.9 356.7,314.9 356.7,312.8 343.5,312.8 '/>
		<polygon fill = 'rgb(163,  17, 141)' points = '343.5,312.9 356.7,312.9 356.7,310.8 343.5,310.8 '/>
		<polygon fill = 'rgb(164,  18, 131)' points = '343.5,310.9 356.7,310.9 356.7,308.8 343.5,308.8 '/>
		<polygon fill = 'rgb(166,  19, 120)' points = '343.5,308.9 356.7,308.9 356.7,306.8 343.5,306.8 '/>
		<polygon fill = 'rgb(167,  20, 109)' points = '343.5,306.9 356.7,306.9 356.7,304.8 343.5,304.8 '/>
		<polygon fill = 'rgb(169,  21,  97)' points = '343.5,304.9 356.7,304.9 356.7,302.8 343.5,302.8 '/>
		<polygon fill = 'rgb(170,  23,  86)' points = '343.5,302.9 356.7,302.9 356.7,300.8 343.5,300.8 '/>
		<polygon fill = 'rgb(172,  24,  74)' points = '343.5,300.9 356.7,300.9 356.7,298.8 343.5,298.8 '/>
		<polygon fill = 'rgb(173,  25,  62)' points = '343.5,298.9 356.7,298.9 356.7,296.8 343.5,296.8 '/>
		<polygon fill = 'rgb(175,  26,  49)' points = '343.5,296.9 356.7,296.9 356.7,294.8 343.5,294.8 '/>
		<polygon fill = 'rgb(176,  28,  37)' points = '343.5,294.9 356.7,294.9 356.7,292.8 343.5,292.8 '/>
		<polygon fill = 'rgb(178,  29,  25)' points = '343.5,292.9 356.7,292.9 356.7,290.8 343.5,290.8 '/>
		<polygon fill = 'rgb(179,  30,  12)' points = '343.5,290.9 356.7,290.9 356.7,288.8 343.5,288.8 '/>
		<polygon fill = 'rgb(180,  32,   0)' points = '343.5,288.9 356.7,288.9 356.7,286.8 343.5,286.8 '/>
		<polygon fill = 'rgb(182,  33,   0)' points = '343.5,286.9 356.7,286.9 356.7,284.8 343.5,284.8 '/>
		<polygon fill = 'rgb(183,  35,   0)' points = '343.5,284.9 356.7,284.9 356.7,282.8 343.5,282.8 '/>
		<polygon fill = 'rgb(185,  37,   0)' points = '343.5,282.9 356.7,282.9 356.7,280.8 343.5,280.8 '/>
		<polygon fill = 'rgb(186,  38,   0)' points = '343.5,280.9 356.7,280.9 356.7,278.8 343.5,278.8 '/>
		<polygon fill = 'rgb(187,  40,   0)' points = '343.5,278.9 356.7,278.9 356.7,276.8 343.5,276.8 '/>
		<polygon fill = 'rgb(189,  42,   0)' points = '343.5,276.9 356.7,276.9 356.7,274.8 343.5,274.8 '/>
		<polygon fill = 'rgb(190,  44,   0)' points = '343.5,274.9 356.7,274.9 356.7,272.8 343.5,272.8 '/>
		<polygon fill = 'rgb(191,  45,   0)' points = '343.5,272.9 356.7,272.9 356.7,270.8 343.5,270.8 '/>
		<polygon fill = 'rgb(193,  47,   0)' points = '343.5,270.9 356.7,270.9 356.7,268.8 343.5,268.8 '/>
		<polygon fill = 'rgb(194,  49,   0)' points = '343.5,268.9 356.7,268.9 356.7,266.8 343.5,266.8 '/>
		<polygon fill = 'rgb(195,  51,   0)' points = '343.5,266.9 356.7,266.9 356.7,264.8 343.5,264.8 '/>
		<polygon fill = 'rgb(197,  53,   0)' points = '343.5,264.9 356.7,264.9 356.7,262.8 343.5,262.8 '/>
		<polygon fill = 'rgb(198,  56,   0)' points = '343.5,262.9 356.7,262.9 356.7,260.8 343.5,260.8 '/>
		<polygon fill = 'rgb(199,  58,   0)' points = '343.5,260.9 356.7,260.9 356.7,258.8 343.5,258.8 '/>
		<polygon fill = 'rgb(200,  60,   0)' points = '343.5,258.9 356.7,258.9 356.7,256.8 343.5,256.8 '/>
		<polygon fill = 'rgb(202,  62,   0)' points = '343.5,256.9 356.7,256.9 356.7,254.8 343.5,254.8 '/>
		<polygon fill = 'rgb(203,  65,   0)' points = '343.5,254.9 356.7,254.9 356.7,252.8 343.5,252.8 '/>
		<polygon fill = 'rgb(204,  67,   0)' points = '343.5,252.9 356.7,252.9 356.7,250.8 343.5,250.8 '/>
		<polygon fill = 'rgb(205,  70,   0)' points = '343.5,250.9 356.7,250.9 356.7,248.8 343.5,248.8 '/>
		<polygon fill = 'rgb(207,  72,   0)' points = '343.5,248.9 356.7,248.9 356.7,246.8 343.5,246.8 '/>
		<polygon fill = 'rgb(208,  75,   0)' points = '343.5,246.9 356.7,246.9 356.7,244.7 343.5,244.7 '/>
		<polygon fill = 'rgb(209,  77,   0)' points = '343.5,244.8 356.7,244.8 356.7,242.7 343.5,242.7 '/>
		<polygon fill = 'rgb(210,  80,   0)' points = '343.5,242.8 356.7,242.8 356.7,240.7 343.5,240.7 '/>
		<polygon fill = 'rgb(211,  83,   0)' points = '343.5,240.8 356.7,240.8 356.7,238.7 343.5,238.7 '/>
		<polygon fill = 'rgb(213,  86,   0)' points = '343.5,238.8 356.7,238.8 356.7,236.7 343.5,236.7 '/>
		<polygon fill = 'rgb(214,  89,   0)' points = '343.5,236.8 356.7,236.8 356.7,234.7 343.5,234.7 '/>
		<polygon fill = 'rgb(215,  92,   0)' points = '343.5,234.8 356.7,234.8 356.7,232.7 343.5,232.7 '/>
		<polygon fill = 'rgb(216,  95,   0)' points = '343.5,232.8 356.7,232.8 356.7,230.7 343.5,230.7 '/>
		<polygon fill = 'rgb(217,  98,   0)' points = '343.5,230.8 356.7,230.8 356.7,228.7 343.5,228.7 '/>
		<polygon fill = 'rgb(219, 101,   0)' points = '343.5,228.8 356.7,228.8 356.7,226.7 343.5,226.7 '/>
		<polygon fill = 'rgb(220, 104,   0)' points = '343.5,226.8 356.7,226.8 356.7,224.7 343.5,224.7 '/>
		<polygon fill = 'rgb(221, 108,   0)' points = '343.5,224.8 356.7,224.8 356.7,222.7 343.5,222.7 '/>
		<polygon fill = 'rgb(222, 111,   0)' points = '343.5,222.8 356.7,222.8 356.7,220.7 343.5,220.7 '/>
		<polygon fill = 'rgb(223, 115,   0)' points = '343.5,220.8 356.7,220.8 356.7,218.7 343.5,218.7 '/>
		<polygon fill = 'rgb(224, 118,   0)' points = '343.5,218.8 356.7,218.8 356.7,216.7 343.5,216.7 '/>
		<polygon fill = 'rgb(225, 122,   0)' points = '343.5,216.8 356.7,216.8 356.7,214.7 343.5,214.7 '/>
		<polygon fill = 'rgb(227, 125,   0)' points = '343.5,214.8 356.7,214.8 356.7,212.7 343.5,212.7 '/>
		<polygon fill = 'rgb(228, 129,   0)' points = '343.5,212.8 356.7,212.8 356.7,210.7 343.5,210.7 '/>
		<polygon fill = 'rgb(229, 133,   0)' points = '343.5,210.8 356.7,210.8 356.7,208.7 343.5,208.7 '/>
		<polygon fill = 'rgb(230, 137,   0)' points = '343.5,208.8 356.7,208.8 356.7,206.7 343.5,206.7 '/>
		<polygon fill = 'rgb(231, 141,   0)' points = '343.5,206.8 356.7,206.8 356.7,204.7 343.5,204.7 '/>
		<polygon fill = 'rgb(232, 145,   0)' points = '343.5,204.8 356.7,204.8 356.7,202.7 343.5,202.7 '/>
		<polygon fill = 'rgb(233, 149,   0)' points = '343.5,202.8 356.7,202.8 356.7,200.7 343.5,200.7 '/>
		<polygon fill = 'rgb(234, 153,   0)' points = '343.5,200.8 356.7,200.8 356.7,198.7 343.5,198.7 '/>
		<polygon fill = 'rgb(235, 158,   0)' points = '343.5,198.8 356.7,198.8 356.7,196.7 343.5,196.7 '/>
		<polygon fill = 'rgb(236, 162,   0)' points = '343.5,196.8 356.7,196.8 356.7,194.7 343.5,194.7 '/>
		<polygon fill = 'rgb(237, 166,   0)' points = '343.5,194.8 356.7,194.8 356.7,192.7 343.5,192.7 '/>
		<polygon fill = 'rgb(239, 171,   0)' points = '343.5,192.8 356.7,192.8 356.7,190.7 343.5,190.7 '/>
		<polygon fill = 'rgb(240, 176,   0)' points = '343.5,190.8 356.7,190.8 356.7,188.7 343.5,188.7 '/>
		<polygon fill = 'rgb(241, 180,   0)' points = '343.5,188.8 356.7,188.8 356.7,186.7 343.5,186.7 '/>
		<polygon fill = 'rgb(242, 185,   0)' points = '343.5,186.8 356.7,186.8 356.7,184.7 343.5,184.7 '/>
		<polygon fill = 'rgb(243, 190,   0)' points = '343.5,184.8 356.7,184.8 356.7,182.7 343.5,182.7 '/>
		<polygon fill = 'rgb(244, 195,   0)' points = '343.5,182.8 356.7,182.8 356.7,180.7 343.5,180.7 '/>
		<polygon fill = 'rgb(245, 200,   0)' points = '343.5,180.8 356.7,180.8 356.7,178.7 343.5,178.7 '/>
		<polygon fill = 'rgb(246, 205,   0)' points = '343.5,178.8 356.7,178.8 356.7,176.7 343.5,176.7 '/>
		<polygon fill = 'rgb(247, 210,   0)' points = '343.5,176.8 356.7,176.8 356.7,174.7 343.5,174.7 '/>
		<polygon fill = 'rgb(248, 215,   0)' points = '343.5,174.8 356.7,174.8 356.7,172.7 343.5,172.7 '/>
		<polygon fill = 'rgb(249, 221,   0)' points = '343.5,172.8 356.7,172.8 356.7,170.7 343.5,170.7 '/>
		<polygon fill = 'rgb(250, 226,   0)' points = '343.5,170.8 356.7,170.8 356.7,168.7 343.5,168.7 '/>
		<polygon fill = 'rgb(251, 232,   0)' points = '343.5,168.8 356.7,168.8 356.7,166.7 343.5,166.7 '/>
		<polygon fill = 'rgb(252, 238,   0)' points = '343.5,166.8 356.7,166.8 356.7,164.7 343.5,164.7 '/>
		<polygon fill = 'rgb(253, 243,   0)' points = '343.5,164.8 356.7,164.8 356.7,162.7 343.5,162.7 '/>
		<polygon fill = 'rgb(254, 249,   0)' points = '343.5,162.8 356.7,162.8 356.7,160.7 343.5,160.7 '/>
	</g>
</g>
<g fill="none" color="black" stroke="currentColor" stroke-width="1.00" stroke-linecap="butt" stroke-linejoin="miter">
	<path stroke='black'  d='M343.5,417.0 L356.7,417.0 L356.7,160.7 L343.5,160.7 L343.5,417.0 Z  '/></g>
<g fill="none" color="black" stroke="currentColor" stroke-width="1.00" stroke-linecap="butt" stroke-linejoin="miter">
</g>
<g fill="none" color="black" stroke="currentColor" stroke-width="1.00" stroke-linecap="butt" stroke-linejoin="miter">
	<path stroke='black'  d='M356.7,406.8 L347.7,406.8  '/>	<g transform="translate(365.0,411.3)" stroke="none" fill="black" font-family="Arial" font-size="12.00"  text-anchor="start">
		<text><tspan font-family="Arial" > 5</tspan></text>
	</g>
</g>
<g fill="none" color="black" stroke="currentColor" stroke-width="1.00" stroke-linecap="butt" stroke-linejoin="miter">
	<path stroke='black'  d='M343.5,406.8 L352.5,406.8 M356.7,377.9 L347.7,377.9  '/>	<g transform="translate(365.0,382.4)" stroke="none" fill="black" font-family="Arial" font-size="12.00"  text-anchor="start">
		<text><tspan font-family="Arial" > 10</tspan></text>
	</g>
</g>
<g fill="none" color="black" stroke="currentColor" stroke-width="1.00" stroke-linecap="butt" stroke-linejoin="miter">
	<path stroke='black'  d='M343.5,377.9 L352.5,377.9 M356.7,348.9 L347.7,348.9  '/>	<g transform="translate(365.0,353.4)" stroke="none" fill="black" font-family="Arial" font-size="12.00"  text-anchor="start">
		<text><tspan font-family="Arial" > 15</tspan></text>
	</g>
</g>
<g fill="none" color="black" stroke="currentColor" stroke-width="1.00" stroke-linecap="butt" stroke-linejoin="miter">
	<path stroke='black'  d='M343.5,348.9 L352.5,348.9 M356.7,320.0 L347.7,320.0  '/>	<g transform="translate(365.0,324.5)" stroke="none" fill="black" font-family="Arial" font-size="12.00"  text-anchor="start">
		<text><tspan font-family="Arial" > 20</tspan></text>
	</g>
</g>
<g fill="none" color="black" stroke="currentColor" stroke-width="1.00" stroke-linecap="butt" stroke-linejoin="miter">
	<path stroke='black'  d='M343.5,320.0 L352.5,320.0 M356.7,291.1 L347.7,291.1  '/>	<g transform="translate(365.0,295.6)" stroke="none" fill="black" font-family="Arial" font-size="12.00"  text-anchor="start">
		<text><tspan font-family="Arial" > 25</tspan></text>
	</g>
</g>
<g fill="none" color="black" stroke="currentColor" stroke-width="1.00" stroke-linecap="butt" stroke-linejoin="miter">
	<path stroke='black'  d='M343.5,291.1 L352.5,291.1 M356.7,262.1 L347.7,262.1  '/>	<g transform="translate(365.0,266.6)" stroke="none" fill="black" font-family="Arial" font-size="12.00"  text-anchor="start">
		<text><tspan font-family="Arial" > 30</tspan></text>
	</g>
</g>
<g fill="none" color="black" stroke="currentColor" stroke-width="1.00" stroke-linecap="butt" stroke-linejoin="miter">
	<path stroke='black'  d='M343.5,262.1 L352.5,262.1 M356.7,233.2 L347.7,233.2  '/>	<g transform="translate(365.0,237.7)" stroke="none" fill="black" font-family="Arial" font-size="12.00"  text-anchor="start">
		<text><tspan font-family="Arial" > 35</tspan></text>
	</g>
</g>
<g fill="none" color="black" stroke="currentColor" stroke-width="1.00" stroke-linecap="butt" stroke-linejoin="miter">
	<path stroke='black'  d='M343.5,233.2 L352.5,233.2 M356.7,204.3 L347.7,204.3  '/>	<g transform="translate(365.0,208.8)" stroke="none" fill="black" font-family="Arial" font-size="12.00"  text-anchor="start">
		<text><tspan font-family="Arial" > 40</tspan></text>
	</g>
</g>
<g fill="none" color="black" stroke="currentColor" stroke-width="1.00" stroke-linecap="butt" stroke-linejoin="miter">
	<path stroke='black'  d='M343.5,204.3 L352.5,204.3 M356.7,175.3 L347.7,175.3  '/>	<g transform="translate(365.0,179.8)" stroke="none" fill="black" font-family="Arial" font-size="12.00"  text-anchor="start">
		<text><tspan font-family="Arial" > 45</tspan></text>
	</g>
</g>
<g fill="none" color="black" stroke="currentColor" stroke-width="1.00" stroke-linecap="butt" stroke-linejoin="miter">
	<path stroke='black'  d='M343.5,175.3 L352.5,175.3  '/>	<g transform="translate(398.5,288.9) rotate(270)" stroke="none" fill="black" font-family="Arial" font-size="12.00"  text-anchor="middle">
		<text><tspan font-family="Arial" >Overhead in %</tspan></text>
	</g>
</g>
<g fill="none" color="black" stroke="currentColor" stroke-width="1.00" stroke-linecap="butt" stroke-linejoin="miter">
</g>
<g fill="none" color="black" stroke="currentColor" stroke-width="1.00" stroke-linecap="butt" stroke-linejoin="miter">
</g>
</g>
</svg>

