%!PS-Adobe-2.0 EPSF-2.0
%%Title: butterfly.eps
%%Creator: fig2dev Version 3.2 Patchlevel 1
%%CreationDate: Fri Dec 10 00:40:01 2004
%%For: dslun@biohazard-cafe.mit.edu (Desmond S Lun,,32-D640,2533370,6173950230)
%%Orientation: Portrait
%%BoundingBox: 0 0 195 116
%%Pages: 0
%%BeginSetup
%%EndSetup
%%Magnification: 1.0000
%%EndComments
/$F2psDict 200 dict def
$F2psDict begin
$F2psDict /mtrx matrix put
/col-1 {0 setgray} bind def
/col0 {0.000 0.000 0.000 srgb} bind def
/col1 {0.000 0.000 1.000 srgb} bind def
/col2 {0.000 1.000 0.000 srgb} bind def
/col3 {0.000 1.000 1.000 srgb} bind def
/col4 {1.000 0.000 0.000 srgb} bind def
/col5 {1.000 0.000 1.000 srgb} bind def
/col6 {1.000 1.000 0.000 srgb} bind def
/col7 {1.000 1.000 1.000 srgb} bind def
/col8 {0.000 0.000 0.560 srgb} bind def
/col9 {0.000 0.000 0.690 srgb} bind def
/col10 {0.000 0.000 0.820 srgb} bind def
/col11 {0.530 0.810 1.000 srgb} bind def
/col12 {0.000 0.560 0.000 srgb} bind def
/col13 {0.000 0.690 0.000 srgb} bind def
/col14 {0.000 0.820 0.000 srgb} bind def
/col15 {0.000 0.560 0.560 srgb} bind def
/col16 {0.000 0.690 0.690 srgb} bind def
/col17 {0.000 0.820 0.820 srgb} bind def
/col18 {0.560 0.000 0.000 srgb} bind def
/col19 {0.690 0.000 0.000 srgb} bind def
/col20 {0.820 0.000 0.000 srgb} bind def
/col21 {0.560 0.000 0.560 srgb} bind def
/col22 {0.690 0.000 0.690 srgb} bind def
/col23 {0.820 0.000 0.820 srgb} bind def
/col24 {0.500 0.190 0.000 srgb} bind def
/col25 {0.630 0.250 0.000 srgb} bind def
/col26 {0.750 0.380 0.000 srgb} bind def
/col27 {1.000 0.500 0.500 srgb} bind def
/col28 {1.000 0.630 0.630 srgb} bind def
/col29 {1.000 0.750 0.750 srgb} bind def
/col30 {1.000 0.880 0.880 srgb} bind def
/col31 {1.000 0.840 0.000 srgb} bind def

end
save
-130.0 199.0 translate
1 -1 scale

/cp {closepath} bind def
/ef {eofill} bind def
/gr {grestore} bind def
/gs {gsave} bind def
/sa {save} bind def
/rs {restore} bind def
/l {lineto} bind def
/m {moveto} bind def
/rm {rmoveto} bind def
/n {newpath} bind def
/s {stroke} bind def
/sh {show} bind def
/slc {setlinecap} bind def
/slj {setlinejoin} bind def
/slw {setlinewidth} bind def
/srgb {setrgbcolor} bind def
/rot {rotate} bind def
/sc {scale} bind def
/sd {setdash} bind def
/ff {findfont} bind def
/sf {setfont} bind def
/scf {scalefont} bind def
/sw {stringwidth} bind def
/tr {translate} bind def
/tnt {dup dup currentrgbcolor
  4 -2 roll dup 1 exch sub 3 -1 roll mul add
  4 -2 roll dup 1 exch sub 3 -1 roll mul add
  4 -2 roll dup 1 exch sub 3 -1 roll mul add srgb}
  bind def
/shd {dup dup currentrgbcolor 4 -2 roll mul 4 -2 roll mul
  4 -2 roll mul srgb} bind def
 /DrawEllipse {
	/endangle exch def
	/startangle exch def
	/yrad exch def
	/xrad exch def
	/y exch def
	/x exch def
	/savematrix mtrx currentmatrix def
	x y tr xrad yrad sc 0 0 1 startangle endangle arc
	closepath
	savematrix setmatrix
	} def

/$F2psBegin {$F2psDict begin /$F2psEnteredState save def} def
/$F2psEnd {$F2psEnteredState restore end} def
%%EndProlog

$F2psBegin
10 setmiterlimit
n -1000 4307 m -1000 -1000 l 6401 -1000 l 6401 4307 l cp clip
 0.06000 0.06000 sc
% Polyline
n 2175 1425 m 5400 1425 l 5400 3300 l 2175 3300 l cp 
% Polyline
7.500 slw
gs  clippath
2850 1821 m 2933 1729 l 2903 1849 l 2967 1730 l 2914 1702 l cp
clip
n 2569 2411 m 2933 1729 l gs col0 s gr gr

% arrowhead
n 2850 1821 m 2933 1729 l 2903 1849 l  col0 s
% Polyline
gs  clippath
2906 2949 m 2938 3068 l 2853 2978 l 2919 3096 l 2972 3067 l cp
clip
n 2563 2393 m 2938 3068 l gs col0 s gr gr

% arrowhead
n 2906 2949 m 2938 3068 l 2853 2978 l  col0 s
% Polyline
gs  clippath
3309 2576 m 3394 2486 l 3362 2605 l 3428 2487 l 3375 2458 l cp
clip
n 3019 3161 m 3394 2486 l gs col0 s gr gr

% arrowhead
n 3309 2576 m 3394 2486 l 3362 2605 l  col0 s
% Polyline
gs  clippath
3356 2199 m 3388 2318 l 3303 2228 l 3369 2346 l 3422 2317 l cp
clip
n 3013 1643 m 3388 2318 l gs col7 1.00 shd ef gr gs col0 s gr gr

% arrowhead
n 3356 2199 m 3388 2318 l 3303 2228 l  col0 s
% Polyline
gs  clippath
4005 2370 m 4125 2400 l 4005 2430 l 4140 2430 l 4140 2370 l cp
clip
n 3450 2400 m 4125 2400 l gs col0 s gr gr

% arrowhead
n 4005 2370 m 4125 2400 l 4005 2430 l  col0 s
% Polyline
gs  clippath
4473 1807 m 4556 1715 l 4526 1835 l 4590 1716 l 4537 1688 l cp
clip
n 4192 2397 m 4556 1715 l gs col0 s gr gr

% arrowhead
n 4473 1807 m 4556 1715 l 4526 1835 l  col0 s
% Polyline
gs  clippath
4455 1620 m 4575 1650 l 4455 1680 l 4590 1680 l 4590 1620 l cp
clip
n 3000 1650 m 4575 1650 l gs col0 s gr gr

% arrowhead
n 4455 1620 m 4575 1650 l 4455 1680 l  col0 s
% Polyline
gs  clippath
4549 2953 m 4579 3073 l 4496 2981 l 4560 3100 l 4613 3072 l cp
clip
n 4215 2391 m 4579 3073 l gs col0 s gr gr

% arrowhead
n 4549 2953 m 4579 3073 l 4496 2981 l  col0 s
% Polyline
gs  clippath
4455 3120 m 4575 3150 l 4455 3180 l 4590 3180 l 4590 3120 l cp
clip
n 3000 3150 m 4575 3150 l gs col7 1.00 shd ef gr gs col0 s gr gr

% arrowhead
n 4455 3120 m 4575 3150 l 4455 3180 l  col0 s
% Ellipse
n 3000 1650 150 150 0 360 DrawEllipse gs col7 1.00 shd ef gr gs col0 s gr

/Times-Roman ff 180.00 scf sf
3525 2250 m
gs 1 -1 sc (#X_1+X_2#) col0 sh gr
/Times-Roman ff 180.00 scf sf
3675 3075 m
gs 1 -1 sc (#X_2#) col0 sh gr
/Times-Roman ff 180.00 scf sf
3000 2775 m
gs 1 -1 sc (#X_2#) col0 sh gr
/Times-Roman ff 180.00 scf sf
3000 2100 m
gs 1 -1 sc (#X_1#) col0 sh gr
/Times-Roman ff 180.00 scf sf
2550 2025 m
gs 1 -1 sc (#X_1#) col0 sh gr
/Times-Roman ff 180.00 scf sf
2550 2850 m
gs 1 -1 sc (#X_2#) col0 sh gr
/Times-Roman ff 180.00 scf sf
4425 2700 m
gs 1 -1 sc (#X_1+X_2#) col0 sh gr
/Times-Roman ff 180.00 scf sf
4425 2175 m
gs 1 -1 sc (#X_1+X_2#) col0 sh gr
/Times-Roman ff 180.00 scf sf
3675 1575 m
gs 1 -1 sc (#X_1#) col0 sh gr
% Ellipse
n 2550 2400 150 150 0 360 DrawEllipse gs col7 1.00 shd ef gr gs col0 s gr

% Ellipse
n 3450 2400 150 150 0 360 DrawEllipse gs col7 1.00 shd ef gr gs col0 s gr

% Ellipse
n 3000 3150 150 150 0 360 DrawEllipse gs col7 1.00 shd ef gr gs col0 s gr

% Ellipse
n 4200 2400 150 150 0 360 DrawEllipse gs col7 1.00 shd ef gr gs col0 s gr

% Ellipse
n 4650 1650 150 150 0 360 DrawEllipse gs col7 1.00 shd ef gr gs col0 s gr

% Ellipse
n 4650 3150 150 150 0 360 DrawEllipse gs col7 1.00 shd ef gr gs col0 s gr

/Times-Roman ff 180.00 scf sf
4600 3200 m
gs 1 -1 sc (#t_2#) col0 sh gr
/Times-Roman ff 180.00 scf sf
2500 2450 m
gs 1 -1 sc (#s#) col0 sh gr
/Times-Roman ff 180.00 scf sf
4600 1700 m
gs 1 -1 sc (#t_1#) col0 sh gr
$F2psEnd
rs
